^D:\MYLESSONS\PROGRAMSC++\SB_C_L_17\L_17\DEBUG\L_17.OBJ
D:\MYLESSONS\PROGRAMSC++\SB_C_L_17\L_17\DEBUG\L_17.EXE
D:\MYLESSONS\PROGRAMSC++\SB_C_L_17\L_17\DEBUG\L_17.ILK
D:\MYLESSONS\PROGRAMSC++\SB_C_L_17\L_17\DEBUG\L_17.PDB
