^D:\MYLESSONS\PROGRAMSC++\SB_C_L_19\L_19\L_19.CPP
D:\MYLESSONS\PROGRAMSC++\SB_C_L_19\L_19\DEBUG\VC142.PDB
D:\MYLESSONS\PROGRAMSC++\SB_C_L_19\L_19\DEBUG\VC142.IDB
D:\MYLESSONS\PROGRAMSC++\SB_C_L_19\L_19\DEBUG\L_19.OBJ
