^D:\MYLESSONS\PROGRAMSC++\SB_C_L_13\L_13\DEBUG\L_13.OBJ
/OUT:"D:\MYLESSONS\PROGRAMSC++\SB_C_L_13\L_13\DEBUG\L_13.EXE" /INCREMENTAL /NOLOGO KERNEL32.LIB USER32.LIB GDI32.LIB WINSPOOL.LIB COMDLG32.LIB ADVAPI32.LIB SHELL32.LIB OLE32.LIB OLEAUT32.LIB UUID.LIB ODBC32.LIB ODBCCP32.LIB /MANIFEST /MANIFESTUAC:"level='asInvoker' uiAccess='false'" /manifest:embed /DEBUG:FASTLINK /PDB:"D:\MYLESSONS\PROGRAMSC++\SB_C_L_13\L_13\DEBUG\L_13.PDB" /SUBSYSTEM:CONSOLE /TLBID:1 /DYNAMICBASE /NXCOMPAT /IMPLIB:"D:\MYLESSONS\PROGRAMSC++\SB_C_L_13\L_13\DEBUG\L_13.LIB" /MACHINE:X86 DEBUG\L_13.OBJ
^D:\MYLESSONS\PROGRAMSC++\SB_C_L_13\L_13\DEBUG\HELPERS.OBJ|D:\MYLESSONS\PROGRAMSC++\SB_C_L_13\L_13\DEBUG\L_13.OBJ
/OUT:"D:\MYLESSONS\PROGRAMSC++\SB_C_L_13\L_13\DEBUG\L_13.EXE" /INCREMENTAL /NOLOGO KERNEL32.LIB USER32.LIB GDI32.LIB WINSPOOL.LIB COMDLG32.LIB ADVAPI32.LIB SHELL32.LIB OLE32.LIB OLEAUT32.LIB UUID.LIB ODBC32.LIB ODBCCP32.LIB /MANIFEST /MANIFESTUAC:"level='asInvoker' uiAccess='false'" /manifest:embed /DEBUG:FASTLINK /PDB:"D:\MYLESSONS\PROGRAMSC++\SB_C_L_13\L_13\DEBUG\L_13.PDB" /SUBSYSTEM:CONSOLE /TLBID:1 /DYNAMICBASE /NXCOMPAT /IMPLIB:"D:\MYLESSONS\PROGRAMSC++\SB_C_L_13\L_13\DEBUG\L_13.LIB" /MACHINE:X86 DEBUG\HELPERS.OBJ
DEBUG\L_13.OBJ
