^D:\MYLESSONS\PROGRAMSC++\SB_C_L_16\L_16\L_16.CPP
D:\MYLESSONS\PROGRAMSC++\SB_C_L_16\L_16\DEBUG\VC142.PDB
D:\MYLESSONS\PROGRAMSC++\SB_C_L_16\L_16\DEBUG\VC142.IDB
D:\MYLESSONS\PROGRAMSC++\SB_C_L_16\L_16\DEBUG\L_16.OBJ
